(module SML-A1x (layer F.Cu) (tedit 627DDF44)
  (fp_text reference REF** (at 0.01 2.01) (layer F.SilkS)
    (effects (font (size 1 1) (thickness 0.15)))
  )
  (fp_text value SML-A1x (at 0 -1.91) (layer F.Fab)
    (effects (font (size 1 1) (thickness 0.15)))
  )
  (fp_line (start -0.8 0.34) (end -0.8 -0.34) (layer F.Fab) (width 0.12))
  (fp_line (start -0.8 -0.34) (end 0.8 -0.34) (layer F.Fab) (width 0.12))
  (fp_line (start 0.8 -0.34) (end 0.8 0.34) (layer F.Fab) (width 0.12))
  (fp_line (start 0.8 0.34) (end -0.8 0.34) (layer F.Fab) (width 0.12))
  (fp_line (start -0.6 0.34) (end -0.6 0.81) (layer F.Fab) (width 0.12))
  (fp_line (start -0.6 0.81) (end 0.6 0.81) (layer F.Fab) (width 0.12))
  (fp_line (start 0.6 0.81) (end 0.6 0.35) (layer F.Fab) (width 0.12))
  (pad 1 smd rect (at 0.75 0) (size 0.6 0.8) (layers F.Cu F.Paste F.Mask))
  (pad 2 smd rect (at -0.75 0) (size 0.6 0.8) (layers F.Cu F.Paste F.Mask))
)
