EESchema Schematic File Version 4
EELAYER 30 0
EELAYER END
$Descr A4 11693 8268
encoding utf-8
Sheet 1 1
Title ""
Date ""
Rev ""
Comp ""
Comment1 ""
Comment2 ""
Comment3 ""
Comment4 ""
$EndDescr
$Comp
L Timer:NA555 U4
U 1 1 627D9297
P 6150 3200
F 0 "U4" H 6150 3781 50  0000 C CNN
F 1 "NA555" H 6150 3690 50  0000 C CNN
F 2 "NA555:SOIC127P600X175-8N" H 6150 3200 50  0001 C CNN
F 3 "http://www.ti.com/lit/ds/symlink/ne555.pdf" H 6150 3200 50  0001 C CNN
	1    6150 3200
	1    0    0    -1  
$EndComp
$Comp
L Device:R R1
U 1 1 627DA248
P 6600 2750
F 0 "R1" V 6393 2750 50  0000 C CNN
F 1 "18M" V 6484 2750 50  0000 C CNN
F 2 "Resistor_SMD:R_0603_1608Metric_Pad1.05x0.95mm_HandSolder" V 6530 2750 50  0001 C CNN
F 3 "~" H 6600 2750 50  0001 C CNN
	1    6600 2750
	0    1    1    0   
$EndComp
$Comp
L Device:R R2
U 1 1 627DA64E
P 6950 3350
F 0 "R2" H 7020 3396 50  0000 L CNN
F 1 "1M" H 7020 3305 50  0000 L CNN
F 2 "Resistor_SMD:R_0603_1608Metric_Pad1.05x0.95mm_HandSolder" V 6880 3350 50  0001 C CNN
F 3 "~" H 6950 3350 50  0001 C CNN
	1    6950 3350
	1    0    0    -1  
$EndComp
$Comp
L Device:R RY1
U 1 1 627DAAFC
P 8550 4100
F 0 "RY1" H 8480 4054 50  0000 R CNN
F 1 "32R5" H 8480 4145 50  0000 R CNN
F 2 "Resistor_SMD:R_0603_1608Metric_Pad1.05x0.95mm_HandSolder" V 8480 4100 50  0001 C CNN
F 3 "~" H 8550 4100 50  0001 C CNN
	1    8550 4100
	-1   0    0    1   
$EndComp
$Comp
L Device:R RG1
U 1 1 627DADE2
P 7700 4100
F 0 "RG1" H 7630 4054 50  0000 R CNN
F 1 "32R5" H 7630 4145 50  0000 R CNN
F 2 "Resistor_SMD:R_0603_1608Metric_Pad1.05x0.95mm_HandSolder" V 7630 4100 50  0001 C CNN
F 3 "~" H 7700 4100 50  0001 C CNN
	1    7700 4100
	-1   0    0    1   
$EndComp
$Comp
L Device:R RR1
U 1 1 627DAFB4
P 9450 4100
F 0 "RR1" H 9380 4054 50  0000 R CNN
F 1 "32R5" H 9380 4145 50  0000 R CNN
F 2 "Resistor_SMD:R_0603_1608Metric_Pad1.05x0.95mm_HandSolder" V 9380 4100 50  0001 C CNN
F 3 "~" H 9450 4100 50  0001 C CNN
	1    9450 4100
	-1   0    0    1   
$EndComp
$Comp
L Device:C C4
U 1 1 627DB36E
P 6750 3800
F 0 "C4" H 6865 3846 50  0000 L CNN
F 1 ".14u" H 6865 3755 50  0000 L CNN
F 2 "Capacitor_SMD:C_0603_1608Metric_Pad1.05x0.95mm_HandSolder" H 6788 3650 50  0001 C CNN
F 3 "~" H 6750 3800 50  0001 C CNN
	1    6750 3800
	1    0    0    -1  
$EndComp
$Comp
L Device:C C5
U 1 1 627DB691
P 5450 3700
F 0 "C5" H 5565 3746 50  0000 L CNN
F 1 ".01u" H 5565 3655 50  0000 L CNN
F 2 "Capacitor_SMD:C_0603_1608Metric_Pad1.05x0.95mm_HandSolder" H 5488 3550 50  0001 C CNN
F 3 "~" H 5450 3700 50  0001 C CNN
	1    5450 3700
	1    0    0    -1  
$EndComp
$Comp
L Device:LED DY1
U 1 1 627DBEF6
P 8550 4600
F 0 "DY1" V 8589 4483 50  0000 R CNN
F 1 "YLED" V 8498 4483 50  0000 R CNN
F 2 "CT DELSS:CT DELSS" H 8550 4600 50  0001 C CNN
F 3 "~" H 8550 4600 50  0001 C CNN
	1    8550 4600
	0    1    1    0   
$EndComp
$Comp
L Device:LED DG1
U 1 1 627DC37C
P 7700 4600
F 0 "DG1" V 7739 4483 50  0000 R CNN
F 1 "GLED" V 7648 4483 50  0000 R CNN
F 2 "CT DELSS:CT DELSS" H 7700 4600 50  0001 C CNN
F 3 "~" H 7700 4600 50  0001 C CNN
	1    7700 4600
	0    1    1    0   
$EndComp
$Comp
L MCP73838-FCI_UN:MCP73838-FCI_UN IC1
U 1 1 627DD6D4
P 2850 950
F 0 "IC1" H 3450 1215 50  0000 C CNN
F 1 "MCP73838-FCI_UN" H 3450 1124 50  0000 C CNN
F 2 "MCP73838:SOP50P490X110-10N" H 3900 1050 50  0001 L CNN
F 3 "https://ms.componentsearchengine.com/Datasheets/2/MCP73838-FCI_UN.pdf" H 3900 950 50  0001 L CNN
F 4 "Microchip MCP73838-FCI/UN, Battery Charger, 1200mA, 10-Pin MSOP" H 3900 850 50  0001 L CNN "Description"
F 5 "1.1" H 3900 750 50  0001 L CNN "Height"
F 6 "" H 3900 650 50  0001 L CNN "Mouser Part Number"
F 7 "" H 3900 550 50  0001 L CNN "Mouser Price/Stock"
F 8 "Microchip" H 3900 450 50  0001 L CNN "Manufacturer_Name"
F 9 "MCP73838-FCI/UN" H 3900 350 50  0001 L CNN "Manufacturer_Part_Number"
	1    2850 950 
	1    0    0    -1  
$EndComp
$Comp
L Connector:USB_C_Receptacle J1
U 1 1 627DE6E9
P 1200 2050
F 0 "J1" H 1307 3317 50  0000 C CNN
F 1 "USB_C_Receptacle" H 1307 3226 50  0000 C CNN
F 2 "USB4110-GF-A:USB4110GFA" H 1350 2050 50  0001 C CNN
F 3 "https://www.usb.org/sites/default/files/documents/usb_type-c.zip" H 1350 2050 50  0001 C CNN
	1    1200 2050
	1    0    0    -1  
$EndComp
$Comp
L Device:LED DR1
U 1 1 627DB885
P 9450 4600
F 0 "DR1" V 9489 4483 50  0000 R CNN
F 1 "RLED" V 9398 4483 50  0000 R CNN
F 2 "CT DELSS:CT DELSS" H 9450 4600 50  0001 C CNN
F 3 "~" H 9450 4600 50  0001 C CNN
	1    9450 4600
	0    1    1    0   
$EndComp
Wire Wire Line
	5650 3200 5450 3200
Wire Wire Line
	5450 3200 5450 3550
$Comp
L MSS14-V-T_R:MSS14-V-T_R S2
U 1 1 627FCF1F
P 8550 2700
F 0 "S2" H 9100 2965 50  0000 C CNN
F 1 "MSS14-V-T_R" H 9100 2874 50  0000 C CNN
F 2 "MSS14-V-T_R:MSS14VTR" H 9500 2800 50  0001 L CNN
F 3 "https://componentsearchengine.com/Datasheets/1/MSS14-V-T_R.pdf" H 9500 2700 50  0001 L CNN
F 4 "Slide Switches Slide Type 1P4T (1.4mm height)" H 9500 2600 50  0001 L CNN "Description"
F 5 "1.45" H 9500 2500 50  0001 L CNN "Height"
F 6 "Diptronics" H 9500 2400 50  0001 L CNN "Manufacturer_Name"
F 7 "MSS14-V-T/R" H 9500 2300 50  0001 L CNN "Manufacturer_Part_Number"
F 8 "113-MSS14-V-T/R" H 9500 2200 50  0001 L CNN "Mouser Part Number"
F 9 "https://www.mouser.co.uk/ProductDetail/Diptronics/MSS14-V-T-R?qs=gTYE2QTfZfQVACegUQ8B%2FQ%3D%3D" H 9500 2100 50  0001 L CNN "Mouser Price/Stock"
F 10 "" H 9500 2000 50  0001 L CNN "Arrow Part Number"
F 11 "" H 9500 1900 50  0001 L CNN "Arrow Price/Stock"
	1    8550 2700
	1    0    0    -1  
$EndComp
$Comp
L Device:LED DB1
U 1 1 628151AD
P 10700 4600
F 0 "DB1" V 10739 4483 50  0000 R CNN
F 1 "BLED" V 10648 4483 50  0000 R CNN
F 2 "CT DELSS:CT DELSS" H 10700 4600 50  0001 C CNN
F 3 "~" H 10700 4600 50  0001 C CNN
	1    10700 4600
	0    1    1    0   
$EndComp
Wire Wire Line
	7700 2700 8550 2700
Wire Wire Line
	8150 2800 8550 2800
Wire Wire Line
	8350 3100 8550 3100
NoConn ~ 9650 3100
NoConn ~ 9650 3000
NoConn ~ 9650 2900
NoConn ~ 9650 2800
Wire Wire Line
	6150 2500 6150 2750
Wire Wire Line
	5650 3400 5550 3400
Wire Wire Line
	5550 3400 5550 2750
Wire Wire Line
	5550 2750 6150 2750
Connection ~ 6150 2750
Wire Wire Line
	6150 2750 6150 2800
Text Label 6150 2500 0    50   ~ 0
3V3_Flash
Wire Wire Line
	6450 2750 6150 2750
Wire Wire Line
	6750 2750 6950 2750
Wire Wire Line
	6950 2750 6950 3200
Wire Wire Line
	6950 3200 6650 3200
Connection ~ 6950 3200
Wire Wire Line
	6650 3400 6700 3400
Wire Wire Line
	6700 3400 6700 3650
Wire Wire Line
	6700 3650 6750 3650
Wire Wire Line
	6950 3650 6950 3500
Text Label 5400 3000 2    50   ~ 0
Trigger
Text Label 6700 3650 2    50   ~ 0
Trigger
Connection ~ 6750 3650
Wire Wire Line
	6750 3650 6950 3650
Wire Wire Line
	5400 3000 5650 3000
Wire Wire Line
	5450 3850 5450 3950
Wire Wire Line
	6150 3600 6150 3950
Connection ~ 6150 3950
Wire Wire Line
	6150 3950 6750 3950
NoConn ~ 8550 2900
NoConn ~ 1800 3350
NoConn ~ 1800 3250
NoConn ~ 1800 3050
NoConn ~ 1800 2950
NoConn ~ 1800 2750
NoConn ~ 1800 2650
NoConn ~ 1800 2450
NoConn ~ 1800 2350
NoConn ~ 1800 2150
NoConn ~ 1800 2050
NoConn ~ 1800 1850
NoConn ~ 1800 1750
NoConn ~ 1800 1650
NoConn ~ 1800 1550
NoConn ~ 1800 1350
NoConn ~ 1800 1250
NoConn ~ 2850 950 
$Comp
L power:+BATT #PWR0101
U 1 1 628748A6
P 4250 900
F 0 "#PWR0101" H 4250 750 50  0001 C CNN
F 1 "+BATT" H 4265 1073 50  0000 C CNN
F 2 "" H 4250 900 50  0001 C CNN
F 3 "" H 4250 900 50  0001 C CNN
	1    4250 900 
	1    0    0    -1  
$EndComp
Wire Wire Line
	4050 950  4250 950 
Wire Wire Line
	4250 950  4250 900 
Wire Wire Line
	6650 3000 7250 3000
$Comp
L Device:Battery_Cell BT1
U 1 1 6281B207
P 1050 7350
F 0 "BT1" H 1168 7446 50  0000 L CNN
F 1 "Battery_Cell" H 1168 7355 50  0000 L CNN
F 2 "Connector_PinHeader_2.54mm:PinHeader_1x02_P2.54mm_Vertical" V 1050 7410 50  0001 C CNN
F 3 "~" V 1050 7410 50  0001 C CNN
	1    1050 7350
	1    0    0    -1  
$EndComp
$Comp
L Regulator_Linear:AMS1117-3.3 U1
U 1 1 6281CB48
P 3050 7150
F 0 "U1" H 3050 7392 50  0000 C CNN
F 1 "AMS1117-3.3" H 3050 7301 50  0000 C CNN
F 2 "Package_TO_SOT_SMD:SOT-223-3_TabPin2" H 3050 7350 50  0001 C CNN
F 3 "http://www.advanced-monolithic.com/pdf/ds1117.pdf" H 3150 6900 50  0001 C CNN
	1    3050 7150
	1    0    0    -1  
$EndComp
$Comp
L power:GND #PWR0102
U 1 1 6282EFA2
P 3050 7450
F 0 "#PWR0102" H 3050 7200 50  0001 C CNN
F 1 "GND" H 3055 7277 50  0000 C CNN
F 2 "" H 3050 7450 50  0001 C CNN
F 3 "" H 3050 7450 50  0001 C CNN
	1    3050 7450
	1    0    0    -1  
$EndComp
Wire Wire Line
	3350 7150 3500 7150
$Comp
L Device:R B1
U 1 1 62877B52
P 3050 6600
F 0 "B1" V 2843 6600 50  0000 C CNN
F 1 "0R" V 2934 6600 50  0000 C CNN
F 2 "Resistor_SMD:R_0603_1608Metric_Pad1.05x0.95mm_HandSolder" V 2980 6600 50  0001 C CNN
F 3 "~" H 3050 6600 50  0001 C CNN
	1    3050 6600
	0    1    1    0   
$EndComp
Wire Wire Line
	2900 6600 2550 6600
Wire Wire Line
	2550 6600 2550 7150
Wire Wire Line
	2550 7150 2750 7150
Wire Wire Line
	3200 6600 3500 6600
Wire Wire Line
	3500 6600 3500 7150
Text Label 5850 4750 0    50   ~ 0
3V3_Flash
$Comp
L MSS4-V-T_R:MSS4-V-T_R S1
U 1 1 627FEBCA
P 4950 6950
F 0 "S1" H 5450 7215 50  0000 C CNN
F 1 "MSS4-V-T_R" H 5450 7124 50  0000 C CNN
F 2 "MSS4-V-T_R:MSS4VTR" H 5800 7050 50  0001 L CNN
F 3 "http://www.dip.com.tw/en/en-product-information/en-switch005/item/2605-mss3-mss4" H 5800 6950 50  0001 L CNN
F 4 "Slide Switches Slide Type 1P4T (1.4mm height)" H 5800 6850 50  0001 L CNN "Description"
F 5 "1.4" H 5800 6750 50  0001 L CNN "Height"
F 6 "Diptronics" H 5800 6650 50  0001 L CNN "Manufacturer_Name"
F 7 "MSS4-V-T/R" H 5800 6550 50  0001 L CNN "Manufacturer_Part_Number"
F 8 "113-MSS4-V-T/R" H 5800 6450 50  0001 L CNN "Mouser Part Number"
F 9 "https://www.mouser.co.uk/ProductDetail/Diptronics/MSS4-V-T-R?qs=gTYE2QTfZfTZWRRGUi5O2g%3D%3D" H 5800 6350 50  0001 L CNN "Mouser Price/Stock"
F 10 "" H 5800 6250 50  0001 L CNN "Arrow Part Number"
F 11 "" H 5800 6150 50  0001 L CNN "Arrow Price/Stock"
	1    4950 6950
	1    0    0    -1  
$EndComp
NoConn ~ 5950 6950
NoConn ~ 5950 7050
NoConn ~ 5950 7150
NoConn ~ 5950 7250
NoConn ~ 4950 7250
Wire Wire Line
	4950 7150 3500 7150
Connection ~ 3500 7150
$Comp
L Regulator_Linear:AMS1117-3.3 U2
U 1 1 628BCD54
P 5400 6050
F 0 "U2" H 5400 6292 50  0000 C CNN
F 1 "AMS1117-3.3" H 5400 6201 50  0000 C CNN
F 2 "Package_TO_SOT_SMD:SOT-223-3_TabPin2" H 5400 6250 50  0001 C CNN
F 3 "http://www.advanced-monolithic.com/pdf/ds1117.pdf" H 5500 5800 50  0001 C CNN
	1    5400 6050
	1    0    0    -1  
$EndComp
$Comp
L power:GND #PWR0103
U 1 1 628BCD5A
P 5400 6400
F 0 "#PWR0103" H 5400 6150 50  0001 C CNN
F 1 "GND" H 5405 6227 50  0000 C CNN
F 2 "" H 5400 6400 50  0001 C CNN
F 3 "" H 5400 6400 50  0001 C CNN
	1    5400 6400
	1    0    0    -1  
$EndComp
Wire Wire Line
	5700 6050 5850 6050
$Comp
L Device:R B2
U 1 1 628BCD61
P 5400 5500
F 0 "B2" V 5193 5500 50  0000 C CNN
F 1 "0R" V 5284 5500 50  0000 C CNN
F 2 "Resistor_SMD:R_0603_1608Metric_Pad1.05x0.95mm_HandSolder" V 5330 5500 50  0001 C CNN
F 3 "~" H 5400 5500 50  0001 C CNN
	1    5400 5500
	0    1    1    0   
$EndComp
Wire Wire Line
	5250 5500 4900 5500
Wire Wire Line
	4900 5500 4900 6050
Wire Wire Line
	4900 6050 5100 6050
Wire Wire Line
	5550 5500 5850 5500
Wire Wire Line
	5850 5500 5850 6050
$Comp
L Regulator_Linear:AMS1117-3.3 U3
U 1 1 628BF0A4
P 5400 4750
F 0 "U3" H 5400 4992 50  0000 C CNN
F 1 "AMS1117-3.3" H 5400 4901 50  0000 C CNN
F 2 "Package_TO_SOT_SMD:SOT-223-3_TabPin2" H 5400 4950 50  0001 C CNN
F 3 "http://www.advanced-monolithic.com/pdf/ds1117.pdf" H 5500 4500 50  0001 C CNN
	1    5400 4750
	1    0    0    -1  
$EndComp
$Comp
L power:GND #PWR0104
U 1 1 628BF0AA
P 5400 5100
F 0 "#PWR0104" H 5400 4850 50  0001 C CNN
F 1 "GND" H 5405 4927 50  0000 C CNN
F 2 "" H 5400 5100 50  0001 C CNN
F 3 "" H 5400 5100 50  0001 C CNN
	1    5400 5100
	1    0    0    -1  
$EndComp
Wire Wire Line
	5700 4750 5850 4750
$Comp
L Device:R B3
U 1 1 628BF0B1
P 5400 4200
F 0 "B3" V 5193 4200 50  0000 C CNN
F 1 "0R" V 5284 4200 50  0000 C CNN
F 2 "Resistor_SMD:R_0603_1608Metric_Pad1.05x0.95mm_HandSolder" V 5330 4200 50  0001 C CNN
F 3 "~" H 5400 4200 50  0001 C CNN
	1    5400 4200
	0    1    1    0   
$EndComp
Wire Wire Line
	5250 4200 4900 4200
Wire Wire Line
	4900 4200 4900 4750
Wire Wire Line
	4900 4750 5100 4750
Wire Wire Line
	5550 4200 5850 4200
Wire Wire Line
	5850 4200 5850 4750
Wire Wire Line
	4950 7050 4200 7050
Wire Wire Line
	4200 7050 4200 4750
Wire Wire Line
	4200 4750 4900 4750
Connection ~ 4900 4750
Wire Wire Line
	4900 6050 4500 6050
Wire Wire Line
	4500 6050 4500 6950
Wire Wire Line
	4500 6950 4950 6950
Connection ~ 4900 6050
Wire Wire Line
	5850 6050 7250 6050
Wire Wire Line
	7250 6050 7250 3000
Connection ~ 5850 6050
Connection ~ 7250 3000
Wire Wire Line
	7250 3000 8550 3000
$Comp
L SSM6L09FUTE85LF:SSM6L09FUTE85LF Q1
U 1 1 628D3D67
P 1900 4300
F 0 "Q1" H 2650 4565 50  0000 C CNN
F 1 "SSM6L09FUTE85LF" H 2650 4474 50  0000 C CNN
F 2 "SSM6L09FUTE85LF:SOT65P210X120-6N" H 3250 4400 50  0001 L CNN
F 3 "http://www.semicon.toshiba.co.jp/info/lookup.jsp?pid=SSM6L09FU&lang=en" H 3250 4300 50  0001 L CNN
F 4 "MOSFET N-Ch P-Ch Sg FET 0.4A -0.2A 30V -30V" H 3250 4200 50  0001 L CNN "Description"
F 5 "1.2" H 3250 4100 50  0001 L CNN "Height"
F 6 "Toshiba" H 3250 4000 50  0001 L CNN "Manufacturer_Name"
F 7 "SSM6L09FUTE85LF" H 3250 3900 50  0001 L CNN "Manufacturer_Part_Number"
F 8 "757-SSM6L09FUTE85LF" H 3250 3800 50  0001 L CNN "Mouser Part Number"
F 9 "https://www.mouser.co.uk/ProductDetail/Toshiba/SSM6L09FUTE85LF?qs=3kEcuH7qFhe%2FrjRbY%252BXv0A%3D%3D" H 3250 3700 50  0001 L CNN "Mouser Price/Stock"
F 10 "" H 3250 3600 50  0001 L CNN "Arrow Part Number"
F 11 "" H 3250 3500 50  0001 L CNN "Arrow Price/Stock"
	1    1900 4300
	1    0    0    -1  
$EndComp
$Comp
L power:+5V #PWR0105
U 1 1 628EAA46
P 2000 1050
F 0 "#PWR0105" H 2000 900 50  0001 C CNN
F 1 "+5V" H 2015 1223 50  0000 C CNN
F 2 "" H 2000 1050 50  0001 C CNN
F 3 "" H 2000 1050 50  0001 C CNN
	1    2000 1050
	1    0    0    -1  
$EndComp
Connection ~ 2000 1050
Wire Wire Line
	2000 1050 1800 1050
$Comp
L power:+5V #PWR0106
U 1 1 628EB35D
P 2000 3950
F 0 "#PWR0106" H 2000 3800 50  0001 C CNN
F 1 "+5V" H 2015 4123 50  0000 C CNN
F 2 "" H 2000 3950 50  0001 C CNN
F 3 "" H 2000 3950 50  0001 C CNN
	1    2000 3950
	1    0    0    -1  
$EndComp
Wire Wire Line
	1900 4400 1650 4400
Wire Wire Line
	1650 4400 1650 3950
Wire Wire Line
	1650 3950 2000 3950
Wire Wire Line
	2000 3950 3700 3950
Wire Wire Line
	3700 3950 3700 4400
Wire Wire Line
	3700 4400 3400 4400
Connection ~ 2000 3950
Wire Wire Line
	1350 4300 1900 4300
Wire Wire Line
	1350 4300 1350 4900
Wire Wire Line
	1350 4900 3050 4900
Wire Wire Line
	3550 4900 3550 4500
Wire Wire Line
	3550 4500 3400 4500
$Comp
L power:GNDPWR #PWR0107
U 1 1 62911DDC
P 650 4500
F 0 "#PWR0107" H 650 4300 50  0001 C CNN
F 1 "GNDPWR" H 654 4346 50  0000 C CNN
F 2 "" H 650 4450 50  0001 C CNN
F 3 "" H 650 4450 50  0001 C CNN
	1    650  4500
	1    0    0    -1  
$EndComp
$Comp
L power:GNDPWR #PWR0108
U 1 1 62914DBB
P 3200 2100
F 0 "#PWR0108" H 3200 1900 50  0001 C CNN
F 1 "GNDPWR" H 3204 1946 50  0000 C CNN
F 2 "" H 3200 2050 50  0001 C CNN
F 3 "" H 3200 2050 50  0001 C CNN
	1    3200 2100
	1    0    0    -1  
$EndComp
Wire Wire Line
	4000 4400 4000 4300
Wire Wire Line
	4000 4300 3800 4300
Wire Wire Line
	5850 3950 6150 3950
Wire Wire Line
	5450 3950 5850 3950
Connection ~ 5850 3950
$Comp
L power:GND #PWR0109
U 1 1 6283002A
P 5850 3950
F 0 "#PWR0109" H 5850 3700 50  0001 C CNN
F 1 "GND" H 5855 3777 50  0000 C CNN
F 2 "" H 5850 3950 50  0001 C CNN
F 3 "" H 5850 3950 50  0001 C CNN
	1    5850 3950
	1    0    0    -1  
$EndComp
$Comp
L power:GNDREF #PWR0110
U 1 1 62930FBA
P 1050 7450
F 0 "#PWR0110" H 1050 7200 50  0001 C CNN
F 1 "GNDREF" H 1055 7277 50  0000 C CNN
F 2 "" H 1050 7450 50  0001 C CNN
F 3 "" H 1050 7450 50  0001 C CNN
	1    1050 7450
	1    0    0    -1  
$EndComp
$Comp
L power:GNDREF #PWR0111
U 1 1 6293301B
P 1200 3650
F 0 "#PWR0111" H 1200 3400 50  0001 C CNN
F 1 "GNDREF" H 1205 3477 50  0000 C CNN
F 2 "" H 1200 3650 50  0001 C CNN
F 3 "" H 1200 3650 50  0001 C CNN
	1    1200 3650
	1    0    0    -1  
$EndComp
$Comp
L power:GNDREF #PWR0112
U 1 1 62933A70
P 3050 4900
F 0 "#PWR0112" H 3050 4650 50  0001 C CNN
F 1 "GNDREF" H 3055 4727 50  0000 C CNN
F 2 "" H 3050 4900 50  0001 C CNN
F 3 "" H 3050 4900 50  0001 C CNN
	1    3050 4900
	1    0    0    -1  
$EndComp
Connection ~ 3050 4900
Wire Wire Line
	3050 4900 3550 4900
$Comp
L power:GND #PWR0113
U 1 1 62934968
P 4000 4400
F 0 "#PWR0113" H 4000 4150 50  0001 C CNN
F 1 "GND" H 4005 4227 50  0000 C CNN
F 2 "" H 4000 4400 50  0001 C CNN
F 3 "" H 4000 4400 50  0001 C CNN
	1    4000 4400
	1    0    0    -1  
$EndComp
Text Label 10700 4750 0    50   ~ 0
3V3_Flash
Wire Wire Line
	650  4500 1050 4500
$Comp
L Device:R B4
U 1 1 62948709
P 1050 4650
F 0 "B4" H 1120 4696 50  0000 L CNN
F 1 "0R" H 1120 4605 50  0000 L CNN
F 2 "Resistor_SMD:R_0603_1608Metric_Pad1.05x0.95mm_HandSolder" V 980 4650 50  0001 C CNN
F 3 "~" H 1050 4650 50  0001 C CNN
	1    1050 4650
	1    0    0    -1  
$EndComp
Connection ~ 1050 4500
Wire Wire Line
	1050 4500 1900 4500
Wire Wire Line
	1050 4800 1050 4900
Wire Wire Line
	1050 4900 1350 4900
Connection ~ 1350 4900
$Comp
L Device:R B5
U 1 1 6294CBB2
P 3800 4650
F 0 "B5" H 3870 4696 50  0000 L CNN
F 1 "0R" H 3870 4605 50  0000 L CNN
F 2 "Resistor_SMD:R_0603_1608Metric_Pad1.05x0.95mm_HandSolder" V 3730 4650 50  0001 C CNN
F 3 "~" H 3800 4650 50  0001 C CNN
	1    3800 4650
	1    0    0    -1  
$EndComp
Wire Wire Line
	3550 4900 3800 4900
Wire Wire Line
	3800 4900 3800 4800
Connection ~ 3550 4900
Wire Wire Line
	3800 4500 3800 4300
Connection ~ 3800 4300
Wire Wire Line
	3800 4300 3400 4300
Wire Wire Line
	1050 7150 2550 7150
Connection ~ 2550 7150
$Comp
L power:+BATT #PWR0114
U 1 1 6296F000
P 1050 7150
F 0 "#PWR0114" H 1050 7000 50  0001 C CNN
F 1 "+BATT" H 1065 7323 50  0000 C CNN
F 2 "" H 1050 7150 50  0001 C CNN
F 3 "" H 1050 7150 50  0001 C CNN
	1    1050 7150
	1    0    0    -1  
$EndComp
Connection ~ 1050 7150
$Comp
L Device:R R6
U 1 1 629714A4
P 4400 1850
F 0 "R6" H 4470 1896 50  0000 L CNN
F 1 "10k" H 4470 1805 50  0000 L CNN
F 2 "Resistor_SMD:R_0603_1608Metric_Pad1.05x0.95mm_HandSolder" V 4330 1850 50  0001 C CNN
F 3 "~" H 4400 1850 50  0001 C CNN
	1    4400 1850
	1    0    0    -1  
$EndComp
Text Notes 5500 2350 2    50   ~ 0
"If temperature monitoring is not required, place a\nstandard 10 k resistor from THERM to VSS"
Wire Wire Line
	4400 1700 4400 1050
Wire Wire Line
	4400 1050 4050 1050
$Comp
L Device:R R8
U 1 1 6297FAB9
P 5000 1500
F 0 "R8" H 5070 1546 50  0000 L CNN
F 1 "0R" H 5070 1455 50  0000 L CNN
F 2 "Resistor_SMD:R_0603_1608Metric_Pad1.05x0.95mm_HandSolder" V 4930 1500 50  0001 C CNN
F 3 "~" H 5000 1500 50  0001 C CNN
	1    5000 1500
	1    0    0    -1  
$EndComp
$Comp
L Device:R R7
U 1 1 629800F6
P 5000 1050
F 0 "R7" H 5070 1096 50  0000 L CNN
F 1 "NC" H 5070 1005 50  0000 L CNN
F 2 "Resistor_SMD:R_0603_1608Metric_Pad1.05x0.95mm_HandSolder" V 4930 1050 50  0001 C CNN
F 3 "~" H 5000 1050 50  0001 C CNN
	1    5000 1050
	1    0    0    -1  
$EndComp
Wire Wire Line
	5000 1200 5000 1250
Wire Wire Line
	5000 1250 4050 1250
Wire Wire Line
	5000 1350 5000 1250
Connection ~ 5000 1250
$Comp
L Device:R R5
U 1 1 629880C8
P 4150 1600
F 0 "R5" H 4220 1646 50  0000 L CNN
F 1 "NC" H 4220 1555 50  0000 L CNN
F 2 "Resistor_SMD:R_0603_1608Metric_Pad1.05x0.95mm_HandSolder" V 4080 1600 50  0001 C CNN
F 3 "~" H 4150 1600 50  0001 C CNN
	1    4150 1600
	1    0    0    -1  
$EndComp
Wire Wire Line
	4050 1350 4150 1350
Wire Wire Line
	4150 1350 4150 1450
Wire Wire Line
	4400 2000 4400 2050
Wire Wire Line
	4400 2050 4150 2050
Wire Wire Line
	3200 2050 3200 2100
Wire Wire Line
	3200 2050 2750 2050
Wire Wire Line
	2750 2050 2750 1350
Wire Wire Line
	2750 1350 2850 1350
Connection ~ 3200 2050
Wire Wire Line
	4150 1750 4150 2050
Connection ~ 4150 2050
Wire Wire Line
	4150 2050 3200 2050
Wire Wire Line
	4400 2050 4700 2050
Wire Wire Line
	5000 2050 5000 1650
Connection ~ 4400 2050
Wire Wire Line
	4250 900  5000 900 
Connection ~ 4250 900 
Wire Wire Line
	4050 1150 4700 1150
Wire Wire Line
	4700 1150 4700 2050
Connection ~ 4700 2050
Wire Wire Line
	4700 2050 5000 2050
$Comp
L Device:LED D2
U 1 1 629AC666
P 2650 1250
F 0 "D2" H 2643 995 50  0000 C CNN
F 1 "LED" H 2643 1086 50  0000 C CNN
F 2 "side_LEDs:SML-A1x" H 2650 1250 50  0001 C CNN
F 3 "~" H 2650 1250 50  0001 C CNN
	1    2650 1250
	-1   0    0    1   
$EndComp
$Comp
L Device:LED D1
U 1 1 629AD752
P 2000 1450
F 0 "D1" V 2039 1333 50  0000 R CNN
F 1 "LED" V 1948 1333 50  0000 R CNN
F 2 "side_LEDs:SML-A1x" H 2000 1450 50  0001 C CNN
F 3 "~" H 2000 1450 50  0001 C CNN
	1    2000 1450
	0    -1   -1   0   
$EndComp
Wire Wire Line
	2000 1050 2850 1050
Wire Wire Line
	2800 1250 2850 1250
$Comp
L Device:R R4
U 1 1 629C82BE
P 2350 1250
F 0 "R4" V 2143 1250 50  0000 C CNN
F 1 "140R" V 2234 1250 50  0000 C CNN
F 2 "Resistor_SMD:R_0603_1608Metric_Pad1.05x0.95mm_HandSolder" V 2280 1250 50  0001 C CNN
F 3 "~" H 2350 1250 50  0001 C CNN
	1    2350 1250
	0    1    1    0   
$EndComp
$Comp
L Device:R R3
U 1 1 629CB57D
P 2000 1800
F 0 "R3" H 2070 1846 50  0000 L CNN
F 1 "140R" H 2070 1755 50  0000 L CNN
F 2 "Resistor_SMD:R_0603_1608Metric_Pad1.05x0.95mm_HandSolder" V 1930 1800 50  0001 C CNN
F 3 "~" H 2000 1800 50  0001 C CNN
	1    2000 1800
	1    0    0    -1  
$EndComp
Wire Wire Line
	2000 1650 2000 1600
Wire Wire Line
	2000 1300 2000 1250
Wire Wire Line
	2200 1250 2000 1250
Connection ~ 2000 1250
Wire Wire Line
	2000 1250 2000 1050
$Comp
L power:GNDREF #PWR0115
U 1 1 629DA97A
P 2000 1950
F 0 "#PWR0115" H 2000 1700 50  0001 C CNN
F 1 "GNDREF" H 2005 1777 50  0000 C CNN
F 2 "" H 2000 1950 50  0001 C CNN
F 3 "" H 2000 1950 50  0001 C CNN
	1    2000 1950
	1    0    0    -1  
$EndComp
NoConn ~ 2850 1150
$Comp
L Device:R RB1
U 1 1 62A2148A
P 10350 4100
F 0 "RB1" H 10280 4054 50  0000 R CNN
F 1 "25R" H 10280 4145 50  0000 R CNN
F 2 "Resistor_SMD:R_0603_1608Metric_Pad1.05x0.95mm_HandSolder" V 10280 4100 50  0001 C CNN
F 3 "~" H 10350 4100 50  0001 C CNN
	1    10350 4100
	-1   0    0    1   
$EndComp
$Comp
L Device:LED DB2
U 1 1 62A21490
P 10350 4600
F 0 "DB2" V 10389 4483 50  0000 R CNN
F 1 "BLED" V 10298 4483 50  0000 R CNN
F 2 "CT DELSS:CT DELSS" H 10350 4600 50  0001 C CNN
F 3 "~" H 10350 4600 50  0001 C CNN
	1    10350 4600
	0    1    1    0   
$EndComp
$Comp
L Device:LED DR2
U 1 1 62A284C1
P 9800 4600
F 0 "DR2" V 9839 4483 50  0000 R CNN
F 1 "RLED" V 9748 4483 50  0000 R CNN
F 2 "CT DELSS:CT DELSS" H 9800 4600 50  0001 C CNN
F 3 "~" H 9800 4600 50  0001 C CNN
	1    9800 4600
	0    1    1    0   
$EndComp
Wire Wire Line
	9650 2700 10350 2700
$Comp
L Device:LED DY2
U 1 1 62A634F5
P 8900 4600
F 0 "DY2" V 8939 4483 50  0000 R CNN
F 1 "YLED" V 8848 4483 50  0000 R CNN
F 2 "CT DELSS:CT DELSS" H 8900 4600 50  0001 C CNN
F 3 "~" H 8900 4600 50  0001 C CNN
	1    8900 4600
	0    1    1    0   
$EndComp
$Comp
L Device:LED DG2
U 1 1 62A763A4
P 8050 4600
F 0 "DG2" V 8089 4483 50  0000 R CNN
F 1 "GLED" V 7998 4483 50  0000 R CNN
F 2 "CT DELSS:CT DELSS" H 8050 4600 50  0001 C CNN
F 3 "~" H 8050 4600 50  0001 C CNN
	1    8050 4600
	0    1    1    0   
$EndComp
Connection ~ 8550 4750
Wire Wire Line
	7700 4750 8550 4750
Wire Wire Line
	8550 4750 8900 4750
Connection ~ 8900 4750
Wire Wire Line
	8900 4750 9450 4750
Connection ~ 9450 4750
Wire Wire Line
	9450 4750 9800 4750
Connection ~ 9800 4750
Wire Wire Line
	9800 4750 10350 4750
Connection ~ 10350 4750
Wire Wire Line
	10350 4750 10700 4750
Wire Wire Line
	8350 3450 8350 3100
Wire Wire Line
	8150 3700 8150 2800
Wire Wire Line
	7700 4250 7700 4350
Wire Wire Line
	7700 4350 8050 4350
Wire Wire Line
	8050 4350 8050 4450
Connection ~ 7700 4350
Wire Wire Line
	7700 4350 7700 4450
Wire Wire Line
	8550 4250 8550 4350
Wire Wire Line
	8550 4350 8900 4350
Wire Wire Line
	8900 4350 8900 4450
Connection ~ 8550 4350
Wire Wire Line
	8550 4350 8550 4450
Wire Wire Line
	9450 4250 9450 4350
Wire Wire Line
	9450 4350 9800 4350
Wire Wire Line
	9800 4350 9800 4450
Connection ~ 9450 4350
Wire Wire Line
	9450 4350 9450 4450
Wire Wire Line
	10350 4250 10350 4350
Wire Wire Line
	10350 4350 10700 4350
Wire Wire Line
	10700 4350 10700 4450
Connection ~ 10350 4350
Wire Wire Line
	10350 4350 10350 4450
Wire Wire Line
	10350 2700 10350 3950
Wire Wire Line
	9450 3950 9450 3450
Wire Wire Line
	9450 3450 8350 3450
Wire Wire Line
	8150 3700 8550 3700
Wire Wire Line
	8550 3700 8550 3950
Wire Wire Line
	7700 3950 7700 2700
$Comp
L Device:C C1
U 1 1 62B72708
P 3500 7300
F 0 "C1" H 3615 7346 50  0000 L CNN
F 1 "22u" H 3615 7255 50  0000 L CNN
F 2 "Capacitor_SMD:C_0603_1608Metric_Pad1.05x0.95mm_HandSolder" H 3538 7150 50  0001 C CNN
F 3 "~" H 3500 7300 50  0001 C CNN
	1    3500 7300
	1    0    0    -1  
$EndComp
$Comp
L Device:C C2
U 1 1 62B736C0
P 5850 6200
F 0 "C2" H 5965 6246 50  0000 L CNN
F 1 "22u" H 5965 6155 50  0000 L CNN
F 2 "Capacitor_SMD:C_0603_1608Metric_Pad1.05x0.95mm_HandSolder" H 5888 6050 50  0001 C CNN
F 3 "~" H 5850 6200 50  0001 C CNN
	1    5850 6200
	1    0    0    -1  
$EndComp
$Comp
L Device:C C3
U 1 1 62B73E0F
P 5850 4900
F 0 "C3" H 5965 4946 50  0000 L CNN
F 1 "22u" H 5965 4855 50  0000 L CNN
F 2 "Capacitor_SMD:C_0603_1608Metric_Pad1.05x0.95mm_HandSolder" H 5888 4750 50  0001 C CNN
F 3 "~" H 5850 4900 50  0001 C CNN
	1    5850 4900
	1    0    0    -1  
$EndComp
Connection ~ 5850 4750
Wire Wire Line
	5400 5100 5850 5100
Wire Wire Line
	5850 5100 5850 5050
Wire Wire Line
	5400 5050 5400 5100
Connection ~ 5400 5100
Wire Wire Line
	5400 6350 5400 6400
Wire Wire Line
	5400 6400 5850 6400
Wire Wire Line
	5850 6400 5850 6350
Connection ~ 5400 6400
Wire Wire Line
	3500 7450 3050 7450
Connection ~ 3050 7450
Wire Wire Line
	900  3650 1200 3650
Connection ~ 1200 3650
$EndSCHEMATC
