PCBNEW-LibModule-V1  2022-05-13 06:50:43
# encoding utf-8
Units mm
$INDEX
USB4110GFA
$EndINDEX
$MODULE USB4110GFA
Po 0 0 0 15 627df1b3 00000000 ~~
Li USB4110GFA
Cd USB4110-GF-A-1
Kw Connector
Sc 0
At STD
AR 
Op 0 0 0
T0 0.000 -0.536 1.27 1.27 0 0.254 N V 21 N "J**"
T1 0.000 -0.536 1.27 1.27 0 0.254 N I 21 N "USB4110GFA"
DS -4.47 3.677 4.47 3.677 0.2 24
DS 4.47 3.677 4.47 -3.673 0.2 24
DS 4.47 -3.673 -4.47 -3.673 0.2 24
DS -4.47 -3.673 -4.47 3.677 0.2 24
DS -4.47 -1.5 -4.5 -1.5 0.1 21
DS -4.5 -1.5 -4.5 -0.75 0.1 21
DS -4.5 -0.75 -4.47 -0.75 0.1 21
DS -4.47 -0.75 -4.47 -1.5 0.1 21
DS -4.47 2.5 -4.47 2.5 0.1 21
DS -4.47 2.5 -4.47 3.677 0.1 21
DS -4.47 3.677 -4.47 3.677 0.1 21
DS -4.47 3.677 -4.47 2.5 0.1 21
DS -4.47 3.677 4.47 3.677 0.1 21
DS 4.47 3.677 4.47 3.677 0.1 21
DS 4.47 3.677 -4.47 3.677 0.1 21
DS -4.47 3.677 -4.47 3.677 0.1 21
DS 4.47 3.677 4.47 3.677 0.1 21
DS 4.47 3.677 4.47 2.25 0.1 21
DS 4.47 2.25 4.47 2.25 0.1 21
DS 4.47 2.25 4.47 3.677 0.1 21
DS 4.47 -0.75 4.47 -0.75 0.1 21
DS 4.47 -0.75 4.47 -1.75 0.1 21
DS 4.47 -1.75 4.47 -1.75 0.1 21
DS 4.47 -1.75 4.47 -0.75 0.1 21
DS -7.2 -5.75 7.2 -5.75 0.1 24
DS 7.2 -5.75 7.2 4.677 0.1 24
DS 7.2 4.677 -7.2 4.677 0.1 24
DS -7.2 4.677 -7.2 -5.75 0.1 24
DS -3.4 -4.7 -3.4 -4.7 0.2 21
DS -3.3 -4.7 -3.3 -4.7 0.2 21
DS -3.4 -4.7 -3.4 -4.7 0.2 21
DA -3.35 -4.7 -3.400 -4.7 -1800 0.2 21
DA -3.35 -4.7 -3.300 -4.7 -1800 0.2 21
DA -3.35 -4.7 -3.400 -4.7 -1800 0.2 21
$PAD
Po -3.350 -3.678
Sh "A1" R 0.300 1.150 0 0 0
At SMD N 00888000
Ne 0 ""
$EndPAD
$PAD
Po -2.550 -3.678
Sh "A4" R 0.300 1.150 0 0 0
At SMD N 00888000
Ne 0 ""
$EndPAD
$PAD
Po -1.250 -3.678
Sh "A5" R 0.300 1.150 0 0 0
At SMD N 00888000
Ne 0 ""
$EndPAD
$PAD
Po -0.250 -3.678
Sh "A6" R 0.300 1.150 0 0 0
At SMD N 00888000
Ne 0 ""
$EndPAD
$PAD
Po 0.250 -3.678
Sh "A7" R 0.300 1.150 0 0 0
At SMD N 00888000
Ne 0 ""
$EndPAD
$PAD
Po 1.250 -3.678
Sh "A8" R 0.300 1.150 0 0 0
At SMD N 00888000
Ne 0 ""
$EndPAD
$PAD
Po 2.550 -3.678
Sh "A9" R 0.300 1.150 0 0 0
At SMD N 00888000
Ne 0 ""
$EndPAD
$PAD
Po 3.350 -3.678
Sh "A12" R 0.300 1.150 0 0 0
At SMD N 00888000
Ne 0 ""
$EndPAD
$PAD
Po 3.050 -3.678
Sh "B1" R 0.300 1.150 0 0 0
At SMD N 00888000
Ne 0 ""
$EndPAD
$PAD
Po 2.250 -3.678
Sh "B4" R 0.300 1.150 0 0 0
At SMD N 00888000
Ne 0 ""
$EndPAD
$PAD
Po 1.750 -3.678
Sh "B5" R 0.300 1.150 0 0 0
At SMD N 00888000
Ne 0 ""
$EndPAD
$PAD
Po 0.750 -3.678
Sh "B6" R 0.300 1.150 0 0 0
At SMD N 00888000
Ne 0 ""
$EndPAD
$PAD
Po -0.750 -3.678
Sh "B7" R 0.300 1.150 0 0 0
At SMD N 00888000
Ne 0 ""
$EndPAD
$PAD
Po -1.750 -3.678
Sh "B8" R 0.300 1.150 0 0 0
At SMD N 00888000
Ne 0 ""
$EndPAD
$PAD
Po -2.250 -3.678
Sh "B9" R 0.300 1.150 0 0 0
At SMD N 00888000
Ne 0 ""
$EndPAD
$PAD
Po -3.050 -3.678
Sh "B12" R 0.300 1.150 0 0 0
At SMD N 00888000
Ne 0 ""
$EndPAD
$PAD
Po -2.890 -2.603
Sh "MH1" C 0.325 0.325 0 0 900
Dr 0.65 0 0
At STD N 00E0FFFF
Ne 0 ""
$EndPAD
$PAD
Po 2.890 -2.603
Sh "MH2" C 0.325 0.325 0 0 900
Dr 0.65 0 0
At STD N 00E0FFFF
Ne 0 ""
$EndPAD
$PAD
Po -5.110 0.827
Sh "MP1" R 2.000 2.180 0 0 900
At SMD N 00888000
Ne 0 ""
$EndPAD
$PAD
Po 5.110 0.827
Sh "MP2" R 2.000 2.180 0 0 900
At SMD N 00888000
Ne 0 ""
$EndPAD
$PAD
Po -5.110 -3.103
Sh "MP3" R 2.000 2.180 0 0 900
At SMD N 00888000
Ne 0 ""
$EndPAD
$PAD
Po 5.110 -3.103
Sh "MP4" R 2.000 2.180 0 0 900
At SMD N 00888000
Ne 0 ""
$EndPAD
$EndMODULE USB4110GFA
$EndLIBRARY
