PCBNEW-LibModule-V1  2022-05-13 01:49:45
# encoding utf-8
Units mm
$INDEX
MSS14VTR
$EndINDEX
$MODULE MSS14VTR
Po 0 0 0 15 627dab29 00000000 ~~
Li MSS14VTR
Cd MSS14-V-T/R-1
Kw Switch
Sc 0
At STD
AR 
Op 0 0 0
T0 0.000 -0.275 1.27 1.27 0 0.254 N V 21 N "S**"
T1 0.000 -0.275 1.27 1.27 0 0.254 N I 21 N "MSS14VTR"
DS -5.65 1.3 5.65 1.3 0.2 24
DS 5.65 1.3 5.65 -1.3 0.2 24
DS 5.65 -1.3 -5.65 -1.3 0.2 24
DS -5.65 -1.3 -5.65 1.3 0.2 24
DS 0.1 1.3 1.4 1.3 0.2 24
DS 1.4 1.3 1.4 2.8 0.2 24
DS 1.4 2.8 0.1 2.8 0.2 24
DS 0.1 2.8 0.1 1.3 0.2 24
DS -5 1.3 0.1 1.3 0.1 21
DS 0.1 1.3 0.1 1.3 0.1 21
DS 0.1 1.3 -5 1.3 0.1 21
DS -5 1.3 -5 1.3 0.1 21
DS -7.4 -4.35 7.4 -4.35 0.1 24
DS 7.4 -4.35 7.4 3.8 0.1 24
DS 7.4 3.8 -7.4 3.8 0.1 24
DS -7.4 3.8 -7.4 -4.35 0.1 24
DS -3.85 -3.3 -3.85 -3.3 0.2 21
DS -3.65 -3.3 -3.65 -3.3 0.2 21
DS -3.85 -3.3 -3.85 -3.3 0.2 21
DS 0 1.3 5 1.3 0.1 21
DA -3.75 -3.3 -3.850 -3.3 -1800 0.2 21
DA -3.75 -3.3 -3.650 -3.3 -1800 0.2 21
DA -3.75 -3.3 -3.850 -3.3 -1800 0.2 21
$PAD
Po -3.750 -1.75
Sh "A1" R 0.700 1.500 0 0 0
At SMD N 00888000
Ne 0 ""
$EndPAD
$PAD
Po -2.250 -1.75
Sh "B1" R 0.700 1.500 0 0 0
At SMD N 00888000
Ne 0 ""
$EndPAD
$PAD
Po -0.750 -1.75
Sh "C1" R 0.700 1.500 0 0 0
At SMD N 00888000
Ne 0 ""
$EndPAD
$PAD
Po 0.750 -1.75
Sh "D1" R 0.700 1.500 0 0 0
At SMD N 00888000
Ne 0 ""
$EndPAD
$PAD
Po 2.250 -1.75
Sh "E1" R 0.700 1.500 0 0 0
At SMD N 00888000
Ne 0 ""
$EndPAD
$PAD
Po 3.750 -1.75
Sh "F1" R 0.700 1.500 0 0 0
At SMD N 00888000
Ne 0 ""
$EndPAD
$PAD
Po -2.500 -0
Sh "MH1" C 0.450 0.450 0 0 900
Dr 0.9 0 0
At STD N 00E0FFFF
Ne 0 ""
$EndPAD
$PAD
Po 2.500 -0
Sh "MH2" C 0.450 0.450 0 0 900
Dr 0.9 0 0
At STD N 00E0FFFF
Ne 0 ""
$EndPAD
$PAD
Po -5.900 1.05
Sh "MP1" R 0.800 1.000 0 0 900
At SMD N 00888000
Ne 0 ""
$EndPAD
$PAD
Po -5.900 -1.05
Sh "MP2" R 0.800 1.000 0 0 900
At SMD N 00888000
Ne 0 ""
$EndPAD
$PAD
Po 5.900 -1.05
Sh "MP3" R 0.800 1.000 0 0 900
At SMD N 00888000
Ne 0 ""
$EndPAD
$PAD
Po 5.900 1.05
Sh "MP4" R 0.800 1.000 0 0 900
At SMD N 00888000
Ne 0 ""
$EndPAD
$EndMODULE MSS14VTR
$EndLIBRARY
