PCBNEW-LibModule-V1  2022-05-13 01:46:18
# encoding utf-8
Units mm
$INDEX
MSS4VTR
$EndINDEX
$MODULE MSS4VTR
Po 0 0 0 15 627daa5a 00000000 ~~
Li MSS4VTR
Cd MSS4-V-T/R-1
Kw Switch
Sc 0
At STD
AR 
Op 0 0 0
T0 0.000 -0 1.27 1.27 0 0.254 N V 21 N "S**"
T1 0.000 -0 1.27 1.27 0 0.254 N I 21 N "MSS4VTR"
DS -4.85 -1.3 4.85 -1.3 0.2 24
DS 4.85 -1.3 4.85 1.3 0.2 24
DS 4.85 1.3 -4.85 1.3 0.2 24
DS -4.85 1.3 -4.85 -1.3 0.2 24
DS -6.65 -3.8 6.65 -3.8 0.1 24
DS 6.65 -3.8 6.65 3.8 0.1 24
DS 6.65 3.8 -6.65 3.8 0.1 24
DS -6.65 3.8 -6.65 -3.8 0.1 24
DS 0 1.3 0 2.8 0.2 24
DS 0 2.8 1.3 2.8 0.2 24
DS 1.3 2.8 1.3 1.3 0.2 24
DS -4.4 1.3 4.4 1.3 0.1 21
DS -0.8 -1.3 0.8 -1.3 0.1 21
DS -4.4 -1.3 -3.6 -1.3 0.1 21
DS 3.6 -1.3 4.4 -1.3 0.1 21
DS -3.1 -3 -3.1 -3 0.2 21
DS -2.9 -3 -2.9 -3 0.2 21
DA -3 -3 -3.100 -3 1800 0.2 21
DA -3 -3 -2.900 -3 1800 0.2 21
$PAD
Po -3.000 -1.75
Sh "A1" R 0.700 1.500 0 0 0
At SMD N 00888000
Ne 0 ""
$EndPAD
$PAD
Po -1.500 -1.75
Sh "B1" R 0.700 1.500 0 0 0
At SMD N 00888000
Ne 0 ""
$EndPAD
$PAD
Po 1.500 -1.75
Sh "C1" R 0.700 1.500 0 0 0
At SMD N 00888000
Ne 0 ""
$EndPAD
$PAD
Po 3.000 -1.75
Sh "D1" R 0.700 1.500 0 0 0
At SMD N 00888000
Ne 0 ""
$EndPAD
$PAD
Po -2.500 -0
Sh "MH1" C 0.450 0.450 0 0 900
Dr 0.9 0 0
At STD N 00E0FFFF
Ne 0 ""
$EndPAD
$PAD
Po 2.500 -0
Sh "MH2" C 0.450 0.450 0 0 900
Dr 0.9 0 0
At STD N 00E0FFFF
Ne 0 ""
$EndPAD
$PAD
Po -5.150 -1
Sh "MP1" R 0.800 1.000 0 0 900
At SMD N 00888000
Ne 0 ""
$EndPAD
$PAD
Po -5.150 1.1
Sh "MP2" R 0.800 1.000 0 0 900
At SMD N 00888000
Ne 0 ""
$EndPAD
$PAD
Po 5.150 1.1
Sh "MP3" R 0.800 1.000 0 0 900
At SMD N 00888000
Ne 0 ""
$EndPAD
$PAD
Po 5.150 -1
Sh "MP4" R 0.800 1.000 0 0 900
At SMD N 00888000
Ne 0 ""
$EndPAD
$EndMODULE MSS4VTR
$EndLIBRARY
